# get-post-on-ali "ark:gunzip -c exp/mono_ali/dev_clean/post-phone.2.gz|" "ark:gunzip -c exp/mono_ali/dev_clean/ali-phone.2.gz|" ark,t:exp/mono_ali/dev_clean/phones.2.conf 
# Started at Sun Dec  3 17:40:46 UTC 2017
#
get-post-on-ali 'ark:gunzip -c exp/mono_ali/dev_clean/post-phone.2.gz|' 'ark:gunzip -c exp/mono_ali/dev_clean/ali-phone.2.gz|' ark,t:exp/mono_ali/dev_clean/phones.2.conf 
LOG (get-post-on-ali[5.3.2~1-0ba0]:main():get-post-on-ali.cc:103) Done getting the posteriors under the alignment path for 675 utterances. 0 with missing alignments.
# Accounting: time=6 threads=1
# Ended (code 0) at Sun Dec  3 17:40:52 UTC 2017, elapsed time 6 seconds
